﻿{
	
		
		
		"feedback_pic":"http://weixin.qq.com/r/WBI3LzPE826MrXdM90dK",
                 "offline_pic":"https://shenniao.oss-cn-hangzhou.aliyuncs.com/files/img/qrcode.jpg",
                 "ok_pic_right":"http://weixin.qq.com/r/WBI3LzPE826MrXdM90dK",
		"tbs_aneble": true,
        "nt_content": "nt ctt",
        "nt_show_time": 50,
        "nt_time_day": 2
		
	
}